-------------------------------------------------------------------------------
Test set: com.example.jenk.JenkinsApplicationTests
-------------------------------------------------------------------------------
Tests run: 2, Failures: 0, Errors: 0, Skipped: 0, Time elapsed: 0.075 s - in com.example.jenk.JenkinsApplicationTests
